mjj,1,0,4360.99,2295.06,367.495,453.202,970.502,761.205,48.9151,645.048,804.053,269.149,471.921
mjj,1,0,5855.39,3869.68,1152.63,2640.64,1353.96,1342.08,438.915,346.311,555.151,201.052,279.133
mjj,1,0,6979.36,4029.82,654.965,2387.79,2714.91,2371.57,250.198,627.884,914.285,346.209,755.297
mjj,1,0,6484.99,2767.97,2061.86,2242.87,3669.86,3423.23,1470.77,1182.72,904.528,238.973,862.225
mjj,1,0,6883.06,2919.31,2517.04,1799.9,4417.19,4647.11,1551.16,818.51,616.401,181.65,715.854
mjj,1,0,7712.81,4066.67,2207.91,3005.42,6822.31,5657.61,1304.88,993.439,653.235,43.7299,921.141
mjj,1,0,6835.01,1386.34,3393.42,5558.11,9182.72,6337.19,1730.25,1255.78,441.348,145.802,1263.83
mjj,1,0,5030.96,1790.09,4567.42,5554.53,7787.95,5074.5,1320.25,1095.62,591.181,0.709957,936.599
mjj,1,0,4332.67,3886.73,7367.13,3379.28,7809.33,6338.68,1626.3,227.866,12.0575,49.1473,887.469
mjj,1,0,4372.87,5039.53,9578.45,1003.13,6417.61,5889.73,556.298,581.843,144.67,196.491,781.7
mjj,1,0,5092.96,2814.08,6328.25,3707,7529.65,6052.17,422.369,696.243,457.374,46.4947,861.567
mjj,1,0,5813.98,537.358,3741.29,5977.51,9784.85,7759.26,1574.35,396.921,472.389,30.659,1375.37
mjj,1,0,6314.19,709.704,2163.82,8052.61,11640.6,8454.06,1626.26,934.411,1139.43,40.5287,2225.15
mjj,1,0,7733.83,4158.1,249.806,6857.55,10505.6,8402.01,2025.58,661.373,1103.32,91.6193,2069.33
mjj,1,0,8962.4,7157.55,2106.45,7810.28,11653.6,9868.52,3589.39,258.046,1099.84,94.0714,2781.81
mjj,1,0,9995.62,10070.2,3776.28,7075.32,11557.7,10660.8,4576.64,124.672,1526.43,276.311,3821.16
mjj,1,0,6593.55,5297.91,2086.34,6299.12,10626.7,10133.1,3395.13,1204.29,1934.33,143.399,3812.18
mjj,1,0,5191.79,4708.37,3860.04,7461.44,9598.01,8098.89,2030.56,1424.36,1970.94,72.9669,3153.32
mjj,1,0,3870.68,3217.86,4353.08,7813.79,7864.14,6628.9,1772.69,1445.03,2106.68,160.425,3018.01
mjj,1,0,4142.83,1103.89,1437.01,7698.84,8752.68,7694.04,2885.89,1166.6,1597.73,118.268,2570.69
mjj,1,0,4009.65,1967.32,3096.31,7938.74,8483.46,8211,3314.81,1477.82,1714.52,245.072,3074.44
mjj,1,0,4407.79,2973.86,4338.87,8745.53,8146.51,6812.18,1612.28,2167.84,2213.15,114.484,3461.01
mjj,1,0,4647.17,3080.98,6051.66,11301.2,8087.65,5543.49,976.461,2051.76,2306.92,40.6022,3420.24
mjj,1,0,4465.67,2651.69,5120.31,10698,8683.01,6074.93,805.261,2484.62,3135.85,364.926,5767.99
mjj,1,0,3236.48,172.706,4277.9,11870.3,9066.67,5475.06,431.312,2222.52,2811,323.273,4794.22
mjj,1,0,3271.74,379.455,3937.73,11621,10717.3,7155.18,621.711,2300.07,2676.52,236.205,4804.65
mjj,1,0,4442.39,1825.21,4380.06,11238.2,10505.4,7832.19,1305.2,2357.09,2863.47,292.617,5438.55
mjj,1,0,3607.99,235.094,2068.72,9812,9833.96,7472.18,1134.62,2610.28,3129.23,352.218,6074.11
mjj,1,0,5058.65,286.612,137.498,10554,13044.2,9457.73,1456.98,2841.8,3384.98,413.651,7720.52
mjj,1,0,1984.12,4025.36,701.068,13753,14100.4,9039.76,1154.7,3643.27,3635.43,62.5911,8653.88
mjj,1,0,3289.94,2230.25,612.782,12212.7,13322.5,9411.08,1933.72,3702.61,3857.81,45.0679,9349.98
mjj,1,0,3737.74,2540.61,506.017,12279.4,14621.8,10480.4,2364.88,3407.45,3351.46,123.498,8203.5
mjj,1,0,4542.11,50.0186,2568.63,13773.4,14080.4,9358.08,1539.1,4223.61,4382.09,102.316,11569.3
mjj,1,0,3055.64,2096.97,2360.43,15763.5,16847.7,10770.8,1573.52,4209.15,4420.39,120.434,12509.2
mjj,1,0,3261.24,2430.79,1326.45,15363.6,17108.1,10529.2,876.055,4230.84,4513.11,272.325,12890.7
mjj,1,0,2131.1,4725.36,652.814,14766.5,17575.3,10950.5,926.98,4091.23,4081.87,121.343,11323.1
mjj,1,0,4234.9,1510.28,397.318,13744.6,15457.8,9211.64,1310.39,3177.68,3650.49,122.974,8666.85
mjj,1,0,2347.44,3400.88,892.523,14093.6,14491.3,8579.83,1403.48,2925.79,3989.18,468.852,9791.19
mjj,1,0,3399.34,3341.54,1067.05,11948.3,13336.9,8417.91,1099.15,3158.14,3798.96,341.46,8801.05
mjj,1,0,3729.08,3293.71,1100.75,12974.6,15263.6,9802.2,1087.76,3370.87,3783.78,286.469,9376.69
mjj,1,0,5935.55,406.807,1234.85,13404.4,14234.8,8036.66,524.531,3624.73,3771.62,329.316,9049.54
mjj,1,0,5506.85,1039.14,2679.43,14076.5,14589.2,8539.45,19.2351,3533.08,4297.48,668.732,11611.1
mjj,1,0,5284.21,943.039,1455.15,11572.1,13171.3,8088.14,451.898,4045.09,4878.69,856.709,14363.1
mjj,1,0,5897.8,1103.08,1356.1,12134,12584.8,6499.29,1701.6,4623.9,4951.31,662.333,14212.8
mjj,1,0,7066.99,3722.61,4135.07,11920,9524.55,4402.42,2442.47,4772.24,4794.77,580.517,13043.7
mjj,1,0,7033.19,4237.74,5741.03,13255,9056.14,3478.29,2487,4009.41,4433.14,747.24,11562.6
mjj,1,0,7477.87,2969.09,3083.5,12430.5,9968.31,3924.41,3540.48,4914.53,4669.51,648.967,13105.9
mjj,1,0,7409.96,3456.9,4603.47,13850.4,10378,4245.7,2987.7,4982.17,4620.24,473.717,12560.2
mjj,1,0,6803.51,420.945,1441.75,13596.5,11057,4459.37,2857.56,4590.38,4637.67,701.554,12924.5
mjj,1,0,6623.72,637.404,3068.1,15765.9,12222.2,5325.63,1875.57,4289.79,4153.32,439.383,10491.3
mjj,1,0,5109.61,453.298,6245.38,18528.2,12835.5,5332.5,1759.29,4204.25,4449.75,654.876,12203.5
mjj,1,0,3654.38,2713.43,4258.03,20145.7,15448.2,6340.6,1516.02,3756.52,4388.4,836.579,12804.6
mjj,1,0,3225.23,3338.53,4336.67,19755.3,12949.5,4316.77,1603.74,3504.71,4297.56,896.706,11981.6
mjj,1,0,3014.69,3978.9,5177.69,22125,14063.6,4449.37,1534.97,3303.63,4563.56,1194.11,14503.5
mjj,1,0,2941.33,5703.16,1245.77,18405,12483.3,3748.75,2593.24,3958.64,4298.06,821.618,11934.9
mjj,1,0,1173.53,8785.3,671.984,18612.6,13110.3,3931.94,1993.68,3630.37,4114.25,755.683,10880.6
mjj,1,0,1055.16,9218.47,292.64,20788.5,14069.6,4324.52,1629.73,3723.22,4566.14,956.887,13533.5
mjj,1,0,2650.43,5923.27,2919.3,21920.8,14586.1,5202.78,220.018,2996.41,4257.65,987.671,12297.7
mjj,1,0,3404.15,6482.4,1431.92,22162.8,15828.8,6118.95,204.317,2976.25,4046.5,945.587,11706.2
mjj,1,0,4577.63,5399.84,2311.23,23767.4,15158.6,3721.92,1851.57,3846.61,4723.28,984.882,14648.7
mjj,1,0,6539.58,3016.73,4014.17,26801.5,18168.6,4599.4,2451.71,3799.13,4562.79,1003.38,14979
mjj,1,0,5176.34,3116.33,6258.71,27867,17913.5,4482.95,2460.56,4034.91,5093.77,1231.45,18390.1
mjj,1,0,3443.68,6081.36,5940.81,29103.7,18358.3,5050.59,2342.21,4237.71,5391.46,1373.3,20846.3
mjj,1,0,3219.37,6082.29,6612.07,30377.5,19465.4,5428.74,2541.45,4403.41,5577.64,1482.63,22882.6
mjj,1,0,2861.32,6278.02,6331.54,29412.4,18757.7,4800.17,3533.97,4871.33,5652.98,1375.61,22829.8
mjj,1,0,3967.37,4291.6,7124.01,30216.3,20400.2,6222.7,2152.76,4409.77,5635.09,1460.78,23197.3
mjj,1,0,3483.8,3839.79,8412.72,30041.8,19558.3,6067.13,1851.25,3941.16,5484.57,1593.99,22872.6
mjj,1,0,5043.02,1238.77,12020.1,34064.9,21404.6,6050.89,2629.09,4236.03,5872.05,1811.01,27421.5
mjj,1,0,4756.87,2211.76,9862.89,32150.6,20996.7,6202.38,2226.28,4275.85,5605.53,1477.11,23414.7
mjj,1,0,4534.16,2290.98,9214.71,30812.7,20582.1,6551.62,1862.22,3934.39,5221.91,1390.7,20728.2
mjj,1,0,4487.96,1780.66,9625.97,30307,20128.2,5874.83,3095.84,4022.26,5412.89,1646.69,23316.1
mjj,1,0,5481.98,448.691,12177.6,31984.1,20229.7,5723.21,2674.92,4218.64,5524.07,1496.35,23017.8
mjj,1,0,6802.2,1279.3,11043.9,31211.9,19935,5703.02,1850.07,3810.42,5055.26,1268.26,19060.9
mjj,1,0,9025.07,2969.02,8474.7,28132.4,19607.8,5946.18,2368.16,4295.29,5132.09,1170.68,18906.7
mjj,1,0,8235.4,2041,7918.95,27016.4,17954.6,4268.56,3842.01,4832.44,5309.52,1185.53,19880.2
mjj,1,0,10367.4,4774.1,8594.3,26333.3,17035.8,4558.81,1822.23,3102.49,4689.79,1465.35,17304.9
mjj,1,0,11052,5265.64,8293.12,26161.5,17224,4078.53,3096.52,3439.03,4789.4,1542.51,18569.3
mjj,1,0,9856.05,4252.88,10242.6,29006.1,17721.8,3337.93,3841.09,3952.26,5456.95,1765.46,23753.5
mjj,1,0,9118.8,3603.15,8532.79,26058.9,17086.1,4317.69,3127.57,3780.42,5470.53,1859.66,23986.4
mjj,1,0,8424.6,4039.14,11588.6,29347.8,17855.5,3688.07,3217.45,3672.37,5694.98,1993.03,26487.9
mjj,1,0,7567.1,2213.35,10574.1,29852.8,18262.7,3838.35,2899.76,3772.78,5640.91,1845.16,25087.1
mjj,1,0,5825.36,540.47,9140.72,29515.4,18028.4,3625.04,3301.54,4544,6283.08,1890.55,29068
mjj,1,0,5481.87,4069.47,4273.95,27708.6,18710.8,4562.45,3200.29,4742.88,6040.95,1668.12,26237
mjj,1,0,5551.17,5352.55,2898.88,28085,19503,4830.77,3589.91,5303.54,6299.52,1570.54,27588.7
mjj,1,0,6210.28,4570.91,3574.88,28934.4,20881.1,6315.19,3128.31,5320.24,6124.21,1459.46,26398.4
mjj,1,0,7353.3,4188.4,2797.97,29943.6,22114.9,6357.56,2956.47,5031.7,6148.93,1534.54,27061.9
mjj,1,0,7877.18,4251.77,1837.49,29808.4,22414.9,6386.89,2674.79,4552.12,5874.11,1575.62,25614.7
mjj,1,0,7269.53,4342.97,3857.33,32032.1,22591.2,6068.83,2654.43,5014.28,5890.29,1319.75,24650.1
mjj,1,0,6787.06,5496.14,3687.88,32765.2,23297.4,6432.16,3047.66,4916.02,5540.72,1255.67,22947.4
mjj,1,0,6755.06,5479.25,4324.01,33339.3,23005.3,6008.52,3416.12,5071.74,5581.44,1282.39,23442.7
mjj,1,0,7913.27,3587.85,5384.64,33863.9,22409.9,4378.55,4697.87,5288.76,5434.96,1218.8,22735.9
mjj,1,0,9119.26,1597.24,5824.55,32648.6,20718.1,2692.44,5569.9,5239.57,5463.46,1272.52,22818
mjj,1,0,10179.7,1293.58,8519.83,34349.1,22305.9,3038.95,6043.59,4830.82,4818.19,1097.69,19600.2
mjj,1,0,10397.1,2930.01,10798.5,36423.5,24214.5,3815.75,6135.1,4835.71,4643.43,1006.77,19282.9
mjj,1,0,9039.13,3.51336,9399.77,36482.4,23300.2,2783.08,6702.5,4885.73,4856.28,1210.86,21100.8
mjj,1,0,9467.14,634.495,10099.6,36658.3,23028.1,3427.64,5693.2,4860.97,4979.31,1205.79,21141.8
mjj,1,0,9184.67,1554.61,7141.05,35514.3,23956.5,4644.66,5745.67,5217.38,5573.29,1495.91,25873.3
mjj,1,0,9535.83,1859.9,6020.59,35297.5,24065.2,4471.83,5331.19,4899.58,5795.16,1681.45,27733.2
mjj,1,0,8617.06,3265.63,5424.25,35546.5,24338.6,3887.46,6261.58,5095.89,5399.38,1386.64,24500.2
mjj,1,0,9807.14,1437.63,5265.18,34552.2,24820.2,4357.44,6408.43,4933.47,5174.85,1380.14,23460.7
mjj,2,0,4669.87,803.722,1454.15,795.662,615.98,729.089,37.1054,189.697,71.8401,30.4515,12.0562
mjj,2,0,4074.81,32.8445,1117.6,1047.56,1054.52,870.886,222.98,745.395,738.171,184.779,174.066
mjj,2,0,5476.08,1654.17,1003.25,617.479,990.084,898.154,146.597,358.824,374.421,185.795,71.1782
mjj,2,0,5903.96,1749.96,979.54,939.378,877.428,1605.53,718.552,969.074,659.986,11.3847,224.817
mjj,2,0,4946.32,1038.08,617.099,1107.65,1126.36,1328.17,688.411,903.921,614.854,14.8381,182.138
mjj,2,0,4138.08,366.809,45.6679,1592.5,1851.09,150.309,506.56,831.299,1240.64,226.752,1107.66
mjj,2,0,4330.99,547.811,857.377,888.853,1132.15,632.118,439.475,727.536,1222.55,348.163,336.967
mjj,2,0,3226.31,1153.72,1462.93,1241.12,680.641,3151.11,8348.05,1582.15,1451.18,497.22,319.115
mjj,2,0,4078.08,1168.94,2129.16,2060.59,522.305,251.462,1494.23,871.892,1854.65,400.564,260.194
mjj,2,0,4325.61,1321.57,2428.32,2490.01,516.855,874.787,752.124,2300.15,2722.42,134.45,3480.64
mjj,2,0,4084.46,1593.05,1912.91,2637.76,1125.94,394.308,802.672,1273.84,1349.19,203.514,739.3
mjj,2,0,3332.7,3425.46,2787.45,3164.18,930.07,605.655,640.091,2258.23,2507.59,12.9229,754.275
mjj,2,0,3913.99,3645.01,3725.57,2887.56,1056.29,235.926,927.708,1835.58,2304.71,644.303,1195.56
mjj,2,0,4204.98,4219.09,4438.22,3098.37,1109.21,405.021,1044.36,2765.58,3435.14,605.854,74592.5
mjj,2,0,3932.85,3885.55,3510.19,3282.44,1291.94,686.103,907.907,4025.77,5146.31,554.185,9472.03
mjj,2,0,2983.8,4167.54,2007.8,3367.32,1687.57,1029.37,1297.32,3228.88,3910.33,661.843,3590.69
mjj,2,0,3236.14,4357.12,2377.01,3639.17,1388.93,1501.38,1907.59,4836.48,4725.13,111.155,6340.65
mjj,2,0,3321.63,5036.3,2300.8,4602.11,1827.42,1348.13,4966.61,18078.2,10524.7,4323.84,152.067
mjj,2,0,2045.91,6316.84,2048.4,4739.36,2107.96,1354.79,138.324,2684.37,1337.03,1773.62,2004.27
mjj,2,0,1919.76,6172.35,1719.64,4754.55,2367.88,1278.5,1083.82,2092.32,2158.6,2906.57,897.332
mjj,2,0,1392.95,7059.06,2203.08,4863.7,2070.64,1223.16,1055.05,2234.84,2267.06,2833.26,1012.06
mjj,2,0,557.328,6477.65,1222.94,4680.73,1405.29,1881.92,1075.8,1257.45,2265.05,3247.63,394.656
mjj,2,0,763.015,6346.68,1148.64,4844.33,824.487,2369.54,267.058,1546.26,2315.48,3102.2,3364.11
mjj,2,0,1801.68,4875.38,1040.56,4076.88,858.266,2926.9,268.947,1250.06,2378.7,3328.81,211.98
mjj,2,0,2392.24,3659.66,622.134,2884.02,1372.38,3026.61,13912.8,24010.7,9849.77,4261.89,106.616
mjj,2,0,2480.45,3325.48,332.296,2899.03,1029.11,3412.17,4468.52,4103.03,2619.23,315.305,3412.66
mjj,2,0,1813.19,3668.93,454.796,3273.77,837.526,4434.69,216794,437852,133642,115093,175.245
mjj,2,0,3198.47,2307.36,108.254,2726.62,996.577,4319.34,1191.08,2298.25,1762.55,2052.9,787.194
mjj,2,0,3362.16,2543.53,601.394,2945.05,556.469,4864.06,359.045,3209.95,1653.11,472.568,1176.54
mjj,2,0,3476.68,2147.49,465.925,2741.6,211.985,5164.18,283.908,5748.7,7560.17,12969.1,219.729
mjj,2,0,3133.29,2121.27,212.244,2862.19,587.51,4089.28,53.8393,3932.98,1118.46,700.587,7994.6
mjj,2,0,3575.35,2115.66,325.416,3367.11,648.233,3733.78,207.207,32038.3,40628.7,54892.2,118.889
mjj,2,0,2810.81,3769.68,319.895,4110.16,1459.55,3041.81,522.356,4516.39,1382.91,526.172,16471.2
mjj,2,0,2308.19,4383.47,869.665,4182.85,1411.42,2441.76,1461.67,4039.18,777.296,605.197,5391.79
mjj,2,0,3210.95,3640.4,520.053,4499.13,1304.07,3196.3,1454.39,4321.31,1551.86,590.87,3918.05
mjj,2,0,4115.6,3463.84,859.229,5037.43,1760.71,3145.79,4328.06,2663.57,1753.32,477.68,504.272
mjj,2,0,4595.44,3119.99,850.431,4602.24,1564.78,4020.22,2347.73,3958.82,1310.51,487.724,1507.27
mjj,2,0,5185.83,1747.83,211.913,4267.17,1955.17,4210.32,1576.06,3850.64,1143.81,436.481,1890.23
mjj,2,0,3930.21,3274.67,593.241,4120.8,1625.78,4567.01,3149.08,3264.54,870.692,253.411,747.066
mjj,2,0,3894.78,3494.35,764.064,4014.67,1288.54,5147.46,2744.43,3581.9,574.574,475.832,1044.08
mjj,2,0,4006.2,3444.24,533.49,4396.74,1438.15,4652.18,2645.44,4071.28,1292.14,135.618,1701.13
mjj,2,0,3452.2,4629.08,744.284,4901.45,1683.21,4535.62,3461.31,3742.15,625.282,161.894,1230.44
mjj,2,0,4087.99,3954.19,954.267,4226.73,1847.82,4435.4,2583.92,4717.69,890.239,126.585,3918.21
mjj,2,0,3194.64,4150.86,159.112,3943.92,1892.57,4376.72,1238.78,5209.38,1278.65,69.3998,16756.6
mjj,2,0,1606.6,5626.63,316.43,4437.45,1468.48,4848.72,220.622,4902.81,1090.58,42.1503,29726.7
mjj,2,0,2122.03,4594.31,645.583,3842.1,1661.96,4844.6,61.6777,4506.48,790.378,265.151,38923.8
mjj,2,0,2044.45,5297.53,638.259,3850.89,2123.78,4764.6,401.452,4941.21,1391.87,109.595,145985
mjj,2,0,1323.02,5264.09,1404.53,3604.48,2371.93,4576.85,641.569,4488.55,1082.41,204.87,276914
mjj,2,0,536.385,4806.93,2233.22,3385.14,2496.3,4400.45,296.839,4395.89,335.087,90.7708,89384.3
mjj,2,0,359.271,5630.24,2144.66,3464.37,2065.18,4512.25,652.938,3892.87,0.00899748,352.389,136412
mjj,2,0,12.7796,4757.65,1523.92,2520.79,1858.77,3801.23,68.0308,3580.17,774.821,205.201,112831
mjj,2,0,68.6337,4973.96,1847.23,2794.07,1713.44,4470.45,774.125,3631.46,822.293,212.66,386803
mjj,2,0,217.959,4153.25,2051.99,1679.71,1674.3,5118.18,1004.01,3786.32,269.333,389.909,2.32667e+06
mjj,2,0,786.777,3487.26,1808.65,1247.35,1370.5,5248.42,8202.19,1897.14,2508.6,749.353,1098.98
mjj,2,0,761.243,3370.77,2182.56,1017.49,2005.22,4442.56,3030.99,1504.76,596.098,1003.62,8424.96
mjj,2,0,129.124,4525.34,2716.14,1818.18,2372.37,4428.45,2995.99,1505.4,727.5,1103.39,15156.8
mjj,2,0,1346.99,3166.75,2838.19,1523.23,3341.12,3843.74,2579.04,1684.81,1139.13,697.852,39742.9
mjj,2,0,1685.7,2794.15,2546,1305.93,2843.99,4175.05,2501.7,2044.34,1673.57,796.199,6619.42
mjj,2,0,3049.07,649.961,2361.54,143.926,3259.98,4121.55,2635,1900.01,2091.71,1193.98,1.72506e+06
mjj,2,0,3855.12,116.482,2216.49,532.201,2855.28,4169.53,3067.63,1906.77,2250.49,1334.84,35627.1
mjj,2,0,4060.86,1042.22,2275.44,2066.96,2973.09,4151.14,3588.81,2153.39,1721.27,874.924,22428.9
mjj,2,0,3995.57,1156.26,2320.96,2047.36,2991.18,4440.54,3823.88,1459.71,1557.95,1369.46,20462.1
mjj,2,0,3897.16,1981.58,2003.54,2559.03,2715.13,4677.34,3950.38,947.302,465.819,1894.6,2427.12
mjj,2,0,2699.4,3735.98,1523.69,3201.13,2276.3,4280.95,3285.94,1337.41,1309.93,1716.51,10970.7
mjj,2,0,4000.37,1096.01,1745.15,1746.75,2056,4945.47,4346.61,1284.83,1266.41,2018.05,5033.74
mjj,2,0,4602.67,386.149,1608.9,1651.38,1905.56,4876.06,10648.3,608.354,3812.71,4300.32,278.179
mjj,2,0,4800.4,22.5461,1529.06,1815.23,1821.52,4424.47,5902.61,711.203,106.064,2996.09,1052.52
mjj,2,0,4889.56,478.969,1389.15,2675.87,1948.32,3740.14,3914.87,1286.41,1135.4,2477.28,5905.51
mjj,2,0,5022.24,396.698,1422.02,3003.89,1647.76,4216.19,4583.93,1798.93,1737.68,2149.39,24283.5
mjj,2,0,4767.71,599.056,1299.85,3037.68,1432.83,4204.25,4335.81,1819.66,1333.75,2240.76,21612.5
mjj,2,0,4682.25,266.009,1337.67,2519.19,1556.66,3679.61,3552.93,2079.38,1285.65,2386.45,40316.2
mjj,2,0,4545.11,292.587,1700.28,2423.38,2087.54,3529.62,3552.17,1876.88,1347.05,2440.69,25665.2
mjj,2,0,5621.19,578.783,1128.95,2633.83,1878.95,2897.21,3419.29,1958.69,1434.92,2749.35,24084.8
mjj,2,0,5925.14,1014.61,1237.06,2180.91,2395.51,2198.88,2994.3,2280.59,1543.59,2418.18,73554.9
mjj,2,0,4973.69,446.726,1460.52,2070.04,3033.31,1713.13,3385.39,2322.83,1191.34,2457.41,42308.9
mjj,2,0,3910.48,16.6065,1408.36,1382.81,3161.35,1289.37,3335.25,2131.49,832.277,2374.37,19203.5
mjj,2,0,4548.03,673.776,1393.03,1624.1,1967.63,2808.07,3997.32,2023.62,282.425,2332.81,11737.2
mjj,2,0,2204.25,1828.83,1609.47,2220.02,2708.66,1238.99,2755.15,1802.49,40.5699,2375.46,7812.09
mjj,2,0,1802.62,2286.68,2031.12,2303.55,2664.86,2106.84,2595.56,1762.62,363.769,2144.85,5853.39
mjj,2,0,852.799,2898.21,2261.03,1911.57,2105.25,3019.77,2769.11,2435.11,19.3373,2353.85,20380.7
mjj,2,0,795.549,2341.93,2122.74,1064.28,1858.5,3311.18,2935.8,2627.28,262.482,2475.5,33123.3
mjj,2,0,665.408,3012.33,1977.06,2270.87,1628.72,2778.23,2139.56,2833.09,59.0038,2322.21,22147.4
mjj,2,0,305.261,4000.93,2254.76,2822.62,2531.87,1686.26,3131.23,3119.88,305.815,2132.59,54645.5
mjj,2,0,1494.85,4622.97,2210.19,2148.64,3783.66,62.2664,3020.42,3199.53,308.388,2535.09,126026
mjj,2,0,1462.46,4630.89,2088.57,2041.88,4229.26,118.179,3615.67,3242.26,18.6369,2300.26,87719.9
mjj,2,0,1146.92,4214.27,1995.63,1563.95,4615.56,149.577,2971.01,3298.08,193.886,2228.56,46477.6
mjj,2,0,1611.9,4975.18,2181.41,1306.86,6146.85,1146.98,2830.11,3300.09,113.813,2293.99,69290.5
mjj,2,0,2036.99,4585.47,1915.12,752.086,5429.52,1318.26,3180.81,3090.8,131.266,2340.53,152280
mjj,2,0,1473.22,4283.91,1683.78,392.043,6696.4,3138.48,1212.6,2764.98,299.925,2290.68,68270.2
mjj,2,0,791.42,4235.07,1680.83,948.007,6928.48,3675.9,792.935,3102.02,105.968,2472.95,82634.3
mjj,2,0,2210.66,5424.34,2411.84,2008.53,4973.18,1997.19,511.762,3108.21,440.203,2521.31,23667
mjj,2,0,2462.48,5353.5,2549.45,1273.62,4864.36,1820.84,1932.58,2968.68,406.119,2383.86,15288.5
mjj,2,0,1775.56,5019.14,2295.8,1504.78,5438.14,2754.62,1734.91,2285.8,400.329,2518.36,10676.7
mjj,2,0,778.184,4567.51,2084.21,1823.65,5272.93,2644.67,1830.88,2627.11,387.757,2560.73,17964.9
mjj,2,0,1664.74,5380.35,2384.34,1930.47,5075.76,2791,1439.94,2921.6,140.506,2711.35,97042.1
mjj,2,0,1269.66,5396.85,2003.04,2098.46,4408.78,2396.76,2402.67,3081.24,122.209,2618.71,62504
mjj,2,0,1584.33,5393.23,2181.35,2180.49,3676.54,1366.39,1487.6,3169.6,266.745,2516.5,62117.4
mjj,2,0,2379.37,4961.85,2551.24,664.976,3047.09,972.141,915.14,3856.09,42.2709,2503.39,24944.1
mjj,2,0,1623.69,4581.48,2681.1,1137.42,2725.01,2129.71,857.831,4177.47,653.895,2178.44,6640.55
mjj,2,0,1481.45,5627.77,3200.24,2723.33,2895.83,2366.94,165.513,3733.49,303.152,2358.03,15341.9
mjj,4,0,92282.9,2561.38,13917.8,8422.42,4447.59,386.017,2539.15,1165.18,186.564,29.341,1327.32
mjj,4,0,92642,9454.52,25048.2,16434.1,3775.51,3619.97,5879.78,4768.72,212.901,315.817,994.296
mjj,4,0,100385,1838.34,26504.9,12326.4,5539.12,5287.26,2280.57,4570.64,97.7426,359.746,4457.06
mjj,4,0,109996,3457.4,34596.2,13391.4,6362.17,6422.46,5845.85,3852.39,723.219,447.078,13234.6
mjj,4,0,102712,4580.69,40664.9,28860.5,521.197,684.948,9124.46,157813,263713,140615,46.4928
mjj,4,0,108533,13618.1,48143.5,14265.2,4502.27,2560.77,8356.7,10241.9,91.7097,636.906,24857.8
mjj,4,0,113276,9308.8,46046.8,15263.3,84.4191,6843.55,4933.3,7584.48,32.5428,647.664,22648.4
mjj,4,0,114723,9610.01,44439.8,16155.1,532.291,5430.65,6054.62,1953.07,13289.5,4916.27,11337.3
mjj,4,0,116711,17255,49967,16615.8,1267.45,6223.45,3317.9,1330.22,3083.01,1956.31,5.61748e+09
mjj,4,0,114895,29579.1,64519.3,14409.4,2451.76,4607.48,3711.79,10721.1,833.903,463.158,4.90524e+09
mjj,4,0,114296,32881,60360.3,19512.3,2213.1,9091.44,1383.76,11778.4,526.601,1066.58,187804
mjj,4,0,112727,34357.6,57817.6,21228.5,147.666,5952.17,2775.99,71061,57189.5,1061.44,616173
mjj,4,0,98194.5,37655.2,63497.5,23546.8,46278.8,6043.99,7698.71,1388.82,8489.74,389.044,3100.74
mjj,4,0,88233.8,53748.3,82974.2,23057.7,11595.4,8112.98,1604.06,6800.72,979.786,922.929,295379
mjj,4,0,61779.5,36655.1,109319,24187.3,28755.1,9659.64,130639,114655,17617.9,340.303,3893.75
mjj,4,0,104607,53303.3,60759.3,19780.9,9883.81,13062,6434.08,5683.29,4820.19,293.976,3534.04
mjj,4,0,76542.6,37945.4,74285.4,10765.6,5964.04,9431.2,11417.3,9952.52,5417.93,96.8317,149046
mjj,4,0,81688.8,48009.2,94049.8,22045.1,6076.04,7558.87,9309.46,5179.11,11504.6,187.109,12396.1
mjj,4,0,94324,43711.4,66290.9,2899.04,21652.2,6148.83,6041.11,23385.3,7790.11,255.659,8892.37
mjj,4,0,92229.5,32643.8,71819.2,11890.1,281.305,9669.08,7737.11,8838.42,14178.6,20.1586,34521.4
mjj,4,0,106326,21638.1,63351.6,8900.82,3369.03,12536.4,3446.81,18883,4548.41,416.745,5.21791e+07
mjj,4,0,104342,26036.3,54054.4,18054,2916.13,13735.7,4080.71,16491.6,2013.6,414.541,8.95843e+07
mjj,4,0,100243,30205.2,51589.7,20858.9,2521.56,12562.4,7482.23,2872.25,5156.44,526.227,8.32656e+08
mjj,4,0,104519,40709,64926.6,19657.8,3323.1,13121.3,13681.1,6811.67,1134.13,1792.66,40596.8
mjj,4,0,102638,44375.3,61457.4,22659.8,3174.71,8239.39,5416.5,4457.35,2780.2,425.066,4.63223e+11
mjj,4,0,106197,44092.7,72403.8,17426.6,2428.82,5720.56,4425.4,15597.3,6438.4,163.219,185902
mjj,4,0,119129,60758.8,79423.8,337464,527938,5668.42,12607,6767.69,575.038,668.73,2620.05
mjj,4,0,111372,46950.5,73624.4,19284.1,2235.88,6380.93,8677.09,11025.5,676.65,695.018,17254.4
mjj,4,0,113644,50965,69030.4,25994.6,1933.99,8710.13,9960.5,11951.9,455.212,976.273,2.12804e+06
mjj,4,0,112959,48683.4,58046.7,33066.7,3776.37,8077.98,13173.5,6231.99,1254.62,309.097,6.9232e+07
mjj,4,0,112702,52528.3,61618.8,31961.6,1046.88,3262.84,12381.1,4857.96,9778.45,1437.02,1.63281e+08
mjj,4,0,119751,44760,52127,35529.6,2146.12,4695.31,11500.7,22374.4,3378.95,315.529,876332
mjj,4,0,115450,54613.7,65301.4,31398.8,3281.09,3837.2,11386.5,35835,18103.1,546.849,4.9289e+07
mjj,4,0,129869,41242.4,56170.2,31490.5,1208.53,3878.89,9590.67,176112,151710,2000.57,1.18622e+10
mjj,4,0,114021,42903.3,62570.8,31808.3,83.1891,1850.96,10689.4,15970.1,16405.5,357.927,65933.6
mjj,4,0,113041,39983.7,55490.7,38219.5,1871.81,1897.62,11004,13102,13300.4,544.229,31279.2
mjj,4,0,115553,48353.9,61461.4,34468.3,4037.48,895.24,416.509,13008.8,18693.9,382.332,11335.5
mjj,4,0,114520,46291.3,53570,44057.1,107.484,262.983,9178.07,9145.11,673.578,102.389,1.47268e+06
mjj,4,0,91372.3,25823,73859,40091.3,595.161,667.314,5365.03,5547.52,1792.79,59.2597,3525.75
mjj,4,0,133371,39772.1,58929.6,37723.9,3512.43,2707.36,6518.1,6982.65,485.048,32.9037,34004.6
mjj,4,0,129907,47396,58488.3,43732.5,471.063,2630.75,5397.09,7365.62,157.354,2751.49,11298.3
mjj,4,0,129724,57150.7,50159.1,55211.8,2493.2,1995.92,34903.9,21163.9,719.752,15985.2,2914.41
mjj,4,0,130253,59895.9,56403.2,59460.6,597.975,2781.56,138422,93177.7,2807.87,42303.8,3001.11
mjj,4,0,129074,54121.9,57592.6,40343.8,3055.57,3055.45,10201.2,35485.9,19154.3,12371.1,9.16312e+06
mjj,4,0,129820,58859.3,65354.6,35533.5,550.876,2395.62,7253.32,8795.88,27.4055,726.114,4.639e+09
mjj,4,0,140398,54765.7,62346.1,40394.2,1502.15,7431.28,5078.31,12476.9,461.611,3333.6,1.63994e+08
mjj,4,0,142548,58436.4,54505.7,45341.4,2370.37,4086.91,2977.85,14952.7,5608.67,626343,5394.87
mjj,4,0,136169,50877.1,47270.8,48605.3,3215.93,16522.7,143467,105879,8414.01,60.2561,3966.17
mjj,4,0,36431.3,3662.44,73566.8,63104.7,911.289,8889.67,7134.83,2535.36,6963.44,46.6253,175316
mjj,4,0,154992,88676.4,130886,84301.3,2753.8,9582.42,7478.19,2997.43,7639.36,253.855,494296
mjj,4,0,113825,52620.1,53466.9,58636.6,639.537,8632.15,515.482,12037,6920.78,169.047,62461.4
mjj,4,0,114493,44998.8,55044.8,55487.7,2919.94,9876.88,396.733,10846.2,6404.77,157.846,1.46209e+06
mjj,4,0,131730,70407.9,47962.1,53936.4,404.551,8982.47,8709.69,15618.4,1530.23,2298.11,29471.5
mjj,4,0,131361,68261.1,50263.4,51976.5,4580.92,10475.8,25466.7,19565.7,10971,4895.52,1.52194e+06
mjj,4,0,127389,60831.5,45899.6,48636.7,4635.86,12414.9,8797.92,12440.9,967.708,1196.95,3.37183e+08
mjj,4,0,121291,60922.5,42023.9,51147.3,6683.3,16292.1,4540.63,14999.6,135.385,1001.67,487918
mjj,4,0,120719,67549,53610.5,45990.2,10857.9,11841.7,1249.26,8831.62,146.314,556.247,3.56994e+06
mjj,4,0,122866,56324.4,55873.4,47103.3,8087.19,11359.5,427.744,10573.8,20549.7,6920.92,5.12658e+08
mjj,4,0,134284,66790,55055.5,44012.6,4027.85,10896,4026.89,13424.4,1342.97,176.748,2.56175e+06
mjj,4,0,130437,61481.6,61590.9,35757.8,7606,13368.1,13428.3,9684.16,5098.33,355.592,1.12854e+07
mjj,4,0,122958,65416.6,59379.4,37972.8,4349.69,12908.1,9144.69,10598.8,1033.39,56.979,5.53373e+09
mjj,4,0,116933,69377.4,54066.8,41315,1514.76,11326.9,6966.6,11674.2,795.14,142.747,2.0662e+06
mjj,4,0,108232,69926.6,72702.4,32966.6,1688.79,11946.2,2719.83,9677.86,967.997,4748.2,5.52925e+07
mjj,4,0,108383,81432,86309.2,27433.7,680.06,12028.5,8968.89,9029.06,434.719,3129.81,28390.4
mjj,4,0,115502,81661.5,96285.7,22183.8,288.942,12138,10133,6682.67,5969.43,5174.71,103098
mjj,4,0,111578,82263,88246.7,26884.4,199.224,12953.4,10403.2,6144.22,1970.67,20.8166,420040
mjj,4,0,106708,78363.7,80022,29350.7,588.16,12375.1,9777.99,5675.3,2052.17,159.482,2.19029e+06
mjj,4,0,109411,76400.9,79066.2,30293,7004.94,8005.24,10316.3,5953,42054.5,8202.78,1.28802e+12
mjj,4,0,111736,73374.7,85300.4,26143.9,9962.92,6087.67,42958,2363.27,23333.2,15274.1,5.42503e+08
mjj,4,0,108244,77120.7,101302,21105.6,19075.7,945.495,2930.08,5906.88,46405,14072.1,121198
mjj,4,0,95234.8,83225.3,116326,34445.1,21559.8,5615.48,8523.45,5521.2,2660.37,1644.18,369596
mjj,4,0,92654.5,90805.9,125848,37919.2,38628.2,17283.2,11293.7,6411.77,2975.78,893.07,2.95385e+06
mjj,4,0,83896.8,87477.5,118416,36593.4,57646.1,32976.3,4071.26,8355.92,2658.42,657.486,4.22818e+09
mjj,4,0,85789.6,83780,129077,35651.4,71435,42059,8536,2074.35,4062.79,780.008,2514.84
mjj,4,0,93385,85671.6,120214,33660.2,10052.7,3112.43,4833.01,4301.85,40212.1,14178.3,9.53686e+09
mjj,4,0,93927.4,73586.8,95700.5,18407.9,15306.6,156201,172217,46451.3,4997.9,1321.94,1337.76
mjj,4,0,91911,75795.2,91654.6,18790.8,13218.7,5842.69,3855.68,8790.26,56995.7,7744.09,143652
mjj,4,0,95079.5,63501.1,138453,2668.29,18587.7,27001.1,10734.3,739.535,1262.95,2405.89,7051.67
mjj,4,0,98978.8,68847.9,76639.2,22853,16034.3,11391.2,4090.77,2800.52,3696.28,360.409,4.61805e+06
mjj,4,0,90105,68952.9,57911.1,33566.4,17515.2,13069.1,4994.41,3396.07,8522.18,1611.59,161515
mjj,4,0,89840.9,73679.4,57876.1,36742.6,19103.6,14829.9,3308.45,2017.06,3153.53,1.99384,1.12553e+06
mjj,4,0,90535.4,74714.5,63560.7,34210.5,19499.4,14663.1,3663.46,9978.67,3795.52,5719.63,1.03188e+06
mjj,4,0,95981.6,77968.8,74426.2,30400,22851,16018.7,3005.22,1597.14,3471.49,295.418,2.54532e+08
mjj,4,0,97033.8,78027.1,78282.5,28372.2,24974.1,19153,2657.25,581.096,3657.83,528.129,5.32163e+07
mjj,4,0,86896.9,78645.8,90656.2,21382.3,19775,11601.8,4162.16,5580.49,3528.84,124.725,1.0704e+06
mjj,4,0,111022,91386.4,388644,365877,361503,79288.7,4307.12,823.077,3545.16,346.904,1.20687e+06
mjj,4,0,88481.9,87298.2,118323,34674.8,25404.6,19777,2661.89,3294.41,3047.38,935.361,46303.2
mjj,4,0,80395.5,95722.1,123804,39121.2,45300.9,35098.8,2171.4,75.645,16861.3,802.837,4.27778e+11
mjj,4,0,86704,93123.5,121986,34685.7,24132.2,18491.9,1333.12,2302.38,4366.13,274.145,3.93698e+06
mjj,4,0,82988.6,95404.8,127836,40382,184127,152663,11689,657.811,779.358,703.441,230361
mjj,4,0,73209.9,94030.9,118924,36349.5,35092.4,25498,3501.61,1527.85,3517.45,227.864,1.26944e+09
mjj,4,0,74343.6,108408,139433,41803.9,19271.9,252.96,3394.9,1072.49,3718.66,1699.43,2.23752e+09
mjj,4,0,70537.6,104703,138124,39738.4,21392.5,959.057,1295.89,3125.62,2788.09,1445.52,1.07264e+06
mjj,4,0,72656.8,122701,277175,56126,17343.2,35.3008,5510,1565.19,2817.87,1030.91,2.27582e+08
mjj,4,0,84220,112872,200638,16312.7,18641.6,10004.5,24105.2,29278.9,19496,1569.37,7757.96
mjj,4,0,45878,17118.8,30622.9,133261,14618.2,2572.93,6763.31,2822.1,1587.83,981.476,11391.3
mjj,4,0,57804.1,88929.2,112975,32353.3,11092.1,3748.54,8385.62,4167.91,4856.04,1819.19,4.77978e+07
mjj,4,0,73370.9,92662.2,59578.3,18860.9,4576.61,2964.07,18195.4,18675.8,11321,2208.28,1418.78
mjj,4,0,57999,84214.1,79079.8,21915.4,12140.5,7801.84,8437.31,101914,435741,84221,3.77896e+08
mjj,4,0,55420.5,81486.1,58066.3,31423.9,12789.2,13696.7,7802.25,4833.35,28508.8,9199.26,724383
mjj,3,0,3048.48,781.617,2254.81,926.222,1306.04,566.959,1209.66,790.262,509.256,94.1524,378.447
mjj,3,0,2194.71,802.087,2031.97,1268.08,1258.49,767.268,45.0632,247.238,19.1917,289.996,161.342
mjj,3,0,1639.02,2038.69,2977.75,1791.88,1541.98,850.496,3.29732,305.483,240.924,171.579,187.666
mjj,3,0,1640.13,3763.2,4855.88,1092.97,132.33,1218.46,7.72101,60.5884,354.509,503.737,2018.74
mjj,3,0,2136.61,3136.94,4286.39,1758.47,1114.66,1598.67,139.194,115.07,266.01,531.328,358.616
mjj,3,0,1459.73,4792.64,6167.47,1645.74,1078.88,702.757,512.425,21.5199,319.358,530.095,2.1164e+07
mjj,3,0,703.424,6546.43,7288.94,1063.3,844.86,108.144,510.739,784.768,83.2598,339.397,16107.8
mjj,3,0,676.278,9138.01,9270.53,680.538,2550.99,2565.92,526.507,143.075,542.703,63.3133,239.94
mjj,3,0,343.453,7762.68,8786.95,982.232,1576.72,2977.57,942.453,3520.51,2857.4,521.651,2994.27
mjj,3,0,442.012,6977.77,7719.04,829.808,2435.64,3376.93,498.739,2553.09,1644.69,387.409,1480.25
mjj,3,0,1640.47,8985.3,7883.1,630.811,11963.1,11663.8,540.731,4912.38,4130.92,552.676,2.36642e+06
mjj,3,0,1585.1,7962.35,6596.05,152.008,3380.42,3655.7,727.472,4209.64,3367.55,438.423,1201.02
mjj,3,0,2025.54,8863.05,7301.37,727.091,1373.86,1909.62,1680.33,4069.25,2921.01,122.03,6369
mjj,3,0,1386.45,6616.06,3733.37,2087.5,1081.92,655.348,910.338,898.079,1765.09,23.6414,503.439
mjj,3,0,1587.52,6060.79,3863.97,826.986,500.668,202.287,296.434,1858.27,2428.21,292.324,669.05
mjj,3,0,808.04,4900.97,4184.02,318.309,384.147,580.35,1065.3,558.921,1446.13,75.8655,325.022
mjj,3,0,1319.67,5502.89,4593.97,12573.7,6301.64,2701.63,743.145,1978.91,2060.93,114.207,4138.74
mjj,3,0,1708.7,7855.78,4713.58,2155.65,22236.4,23103.1,373.049,3664.08,3909.3,404.552,205.445
mjj,3,0,3273.57,9575.26,5641.28,1108.29,1026.47,5571.89,1247.18,101.649,1026.58,183.453,44462.5
mjj,3,0,2441.03,9676.65,4711.03,4352.07,2067.52,5210.72,12.5667,905.364,521.37,412.098,1283.47
mjj,3,0,1781.67,8051.47,2391.31,5729.23,16292.1,39306.7,41760.8,3782.37,411.693,690.239,4229.02
mjj,3,0,2400.87,8622.54,5239.38,1538.2,2505.73,23115.9,6980.17,22417,988.632,730.78,402.721
mjj,3,0,3781.74,9971.34,5715.63,310.491,4209.87,5430.97,2331.17,1451.32,1100.66,443.163,1.76728e+06
mjj,3,0,5855.65,10767.4,5164.98,1414.55,1837.44,74978.4,38436.2,93998,287.474,1015.92,413.373
mjj,3,0,5404.6,8939.74,3561.62,460.619,2368.65,12659.4,4646.22,10840.8,2.72743,919.425,425.555
mjj,3,0,6143.77,10736.6,3527.07,1058.9,8688.03,21470.4,17835.4,4424.95,4715.51,1867.35,940.512
mjj,3,0,6071.71,9363.63,2284.35,1584.26,3981.86,3645.96,1966.79,1216.28,120.124,1076.08,139843
mjj,3,0,4610.4,7582.56,1766.93,2655.07,1456.64,6408.62,2160.15,1229.47,317.644,1219.51,1.0573e+07
mjj,3,0,5151.66,9295.79,1647.07,6929.2,248.876,6968.9,2988.99,1338.54,615.654,675.884,3.62213e+06
mjj,3,0,4624.58,10163.3,2158.65,3836.79,9677.96,5072.07,4815.63,1564.18,787.145,847.343,32826.4
mjj,3,0,4926.76,12172.9,512.044,7257.68,12924.7,4302.91,3235.18,1432.85,690.048,860.587,4532.39
mjj,3,0,3268.31,14258.8,26850.4,40726,13074,2979.27,2327.18,412.402,3468.69,1750.15,1661.81
mjj,3,0,4778.38,11944.8,8888.51,1196.13,2742.61,20111.7,9519.64,8173.01,703.723,1379.24,120432
mjj,3,0,5329.45,11257.4,7490.27,3042.2,4369.06,19269.7,4985.17,4107.78,1937.95,1739.91,344119
mjj,3,0,5561.48,10026,5015.51,1375.51,938.967,17482.3,2057.88,1713.92,2281.18,1824.93,77884.4
mjj,3,0,5397.86,8264.48,1935.66,1011.22,80.6626,17718.2,2357.93,2120.06,2454.19,2077.22,150154
mjj,3,0,169.531,22.511,891.054,714.375,37.1639,18922.8,1203.72,2093.6,1232.12,1854.12,85885.4
mjj,3,0,1663.16,2391.13,326.373,5004.73,4638.12,20627.2,1919.35,1455.81,2862.76,2053.32,30223.6
mjj,3,0,3604.02,4847.09,1456.14,2291.45,2774.51,16724.6,442.48,445.919,3838.96,2123.33,34119.3
mjj,3,0,2832.42,4423.17,1587.36,163.842,1657.47,20566,175.491,102.961,2540.98,1983.9,8.58499e+07
mjj,3,0,6987.99,9749.45,3400.36,289.143,1548.82,21627.3,336.588,299.592,2192.27,1571.48,1.69204e+06
mjj,3,0,15139.1,19795.4,6003.73,6594.45,6559.59,20824.2,499.897,440.386,2185.25,1551.96,5986.5
mjj,3,0,5523.54,6778.34,43848.4,13101.6,3464.87,22626.6,153083,104516,1676.04,1633.16,4215.09
mjj,3,0,10826.9,13748.9,32922.8,30821.7,1860.33,23762.8,1160.12,1428,1543.42,1489.31,3607.84
mjj,3,0,16798.3,20592.2,105074,84920.6,7360.07,24952.8,59078.1,45953.1,1703.61,1631.23,1839.91
mjj,3,0,41395.4,67674.2,71119.7,32793.5,9336.95,27384.1,18933.3,29795.2,1239.51,1498.99,22421
mjj,3,0,51524.6,94744.8,73582.4,17965.6,9707.46,25892.6,5689.67,20506.3,1279.45,1551.13,22908.1
mjj,3,0,50065.5,92731.4,65837.1,10210.9,9235.84,26455.4,14667.3,27954.9,1426.93,1930.29,44076
mjj,3,0,39104.2,66627.4,47271.5,9874.07,7663.52,24665.1,9105.36,24096.3,1651.93,2035.94,27999.6
mjj,3,0,307108,19822.4,54150.6,5486.19,12446.7,23419.2,4106.34,17567.5,1509.75,1780.17,1.10411e+11
mjj,3,0,12501.4,19721.4,23146.5,11270.6,7072.59,23356,4682.53,15267.2,1343.67,1769.49,88960.2
mjj,3,0,14262.6,23320.1,17885.6,9347.65,355.279,24510.7,4890.84,6023.15,3708.81,1532.76,37653.5
mjj,3,0,12277,21354.5,38340.5,25216.5,561.856,28315.8,6611.77,18315.7,1428.24,2023.23,8916.55
mjj,3,0,14265,21446.5,81604.6,73698.3,637.59,30115,8494.02,18456.4,1508.98,1973.96,12294.9
mjj,3,0,9932.25,15251.6,87198.8,79790.4,6617.68,30420.9,2822.4,20427.9,1797.36,2026.56,6688.44
mjj,3,0,13765.1,18089.8,188959,189377,5504.24,28124.5,365.674,19116.8,1880.37,1926.42,5640.74
mjj,3,0,1766.75,1637.22,40439.8,32490.4,6052.65,29210.5,11324.8,26197.5,1664.49,1936.71,6759.73
mjj,3,0,13760.3,25097.8,39042.3,17789.9,8551.89,30024.3,8244.31,25063.3,1693.05,1921.29,11604.1
mjj,3,0,11558.3,16375.3,30226.7,17847,3159.94,31333.6,9534.79,29689.1,1488.48,1923.97,6651.12
mjj,3,0,24722.7,20305.8,86660.2,2155.91,23894.9,17849,5066.68,1009.15,1940.32,2248.24,53668.7
mjj,3,0,24442.8,18999.6,98928.5,5050.22,7995.99,21485.2,2260.4,9835.51,1760.54,2357.07,751207
mjj,3,0,12838.2,19671.8,14995,3385.19,3914.64,23873.8,1683.31,17653.6,1369.59,2150.46,4063.73
mjj,3,0,12001.3,19579.4,25722.2,18147.9,7017.06,29299.7,5852.59,6846.51,3498.61,1375.14,7392.06
mjj,3,0,6888.83,11828.4,15451.5,11069.6,6849.1,29133.9,6275.48,7848.71,3656.08,1051.37,39334
mjj,3,0,333.357,1411.21,219.246,1088.54,6721.12,29213.5,6467.64,8197.41,4134.97,1333.03,2.60296e+07
mjj,3,0,9890.36,19467.5,23077,10391.2,6761.92,21086.3,3506.56,9720.77,1091.4,2229.12,5771.8
mjj,3,0,10726.8,20999.6,24492.6,13137.8,11561,31630.2,6962.85,8645.19,4073.69,1253.86,440378
mjj,3,0,14501.7,26767,29717.7,15520.9,12941.1,32456.4,7436.05,9483.61,4288.41,1112.29,86691.4
mjj,3,0,8552.03,13861,19526.8,9666.02,6378.26,16147.3,7373.54,27085.2,415.977,2319.88,4823.39
mjj,3,0,3934,6151.35,3144.52,5991.32,6303.8,33628.5,7892.01,27935,43.4099,2323.51,86402.4
mjj,3,0,410.622,120.05,8129.23,10520.5,9115.67,10077.8,1925.43,6746.45,723.32,2632.07,4661.48
mjj,3,0,1782.06,1538.17,32268.9,26173.8,4637.96,32207.8,29488.5,46993.1,559.199,2701.48,13754.8
mjj,3,0,209.663,2418.07,30541.5,28581,6904.94,32398.8,17925.3,41000.8,209.763,2867.97,15857.1
mjj,3,0,12420,20094.4,49765,34873.2,4912.14,33460.4,37558.4,53717.8,890.974,2917.64,12769
mjj,3,0,1324.05,2172.58,6493.44,9486.24,13646.4,13472,6109.55,9205.81,468.052,2987.98,7824.46
mjj,3,0,3768.09,5972.15,17950.4,18709.4,817.716,65530.9,96039.9,140185,62.9197,2882.57,268120
mjj,3,0,7524.63,12978.3,50050.9,7805.01,18215.2,179058,343737,406739,576.989,2744.7,5438.53
mjj,3,0,8123.4,14259.9,6959.52,12743.9,11597.2,34914.2,4958.4,7416.62,465.3,2790.38,6375.77
mjj,3,0,8987.48,113937,7.38506e+06,678.92,1.90601e+07,2.10758e+07,4.27712e+07,6.26744e+07,66.1474,2958.5,3249.98
mjj,3,0,1010.21,975.269,7973.58,497.834,6485.15,29940.3,36691.9,45033.9,249.245,2875.24,3162.45
mjj,3,0,4485.54,7140.57,2834.19,655.651,7211.5,38535.5,3149.98,5640.43,332.787,2901.43,7.96513e+08
mjj,3,0,329.319,1069.55,195.613,1420.16,10050.7,42097.1,2734.62,4996.75,770.093,2916.55,8.48319e+07
mjj,3,0,14222.7,24217.5,11812.6,508.734,6225.04,40439.5,4199.05,6486.91,334.453,2922.41,1.76392e+08
mjj,3,0,4712.42,9298.96,4829.83,184.575,1924.95,41600.3,2936.51,5701.98,155.111,2935.82,2.23215e+08
mjj,3,0,1196.27,1672.28,2216.23,1914.03,5399.44,42481.4,3155.1,5975.11,465.33,2603.16,1.6941e+08
mjj,3,0,13654.4,25223.8,16370.7,18652.6,21125,44653.5,4447.46,6846.15,529.355,2543.17,55748.7
mjj,3,0,12712.5,22709.9,14276.9,3595.47,7982.8,45483.3,4235.36,7045.57,883.123,2511.32,1.75333e+08
mjj,3,0,230.779,1129.2,2354.16,23575.2,25710.7,49237.5,4121.45,6811.73,1350.79,2155.71,54640.2
mjj,3,0,14686.4,28550.4,22422,545.018,7541.33,49183.3,7042.09,9003.53,1607.25,1946.48,866696
mjj,3,0,1579.52,2777.9,7055.25,7224.87,12614.1,48120.1,9119.91,10510.7,1833.89,1772.59,736927
mjj,3,0,12075,23588.2,19683.7,6749.28,299.833,48114.4,9120.89,10987.4,2497.66,1655.89,2.23043e+06
mjj,3,0,18316.1,34457.6,26801.1,3703.21,5208.73,51500,10209.7,11760,2309.63,1757.5,1.38251e+06
mjj,3,0,17122.5,31235.9,24762,6698.37,2411.07,49745.6,11316.9,12757,2171.95,1987.38,1.81758e+06
mjj,3,0,13228.5,24351.5,19137.5,9196.96,2364.45,50957.7,10921.2,12328.1,2026.84,1953.45,1.82174e+06
mjj,3,0,14816.9,26454.4,21156.8,14016.6,5628.48,49855.2,14197,14505.5,1949.76,1777.79,2.96842e+06
mjj,3,0,18815.5,31077.8,24504.6,7477.31,3170.05,48511.8,12074.4,12706.6,2040.71,1586.25,1.72588e+06
mjj,3,0,17314.1,25907.2,23323.8,6068.88,7282.52,50052.9,12889.7,13360.9,2057.27,1606.25,774395
mjj,3,0,20468,29981,23329.4,125171,131825,62194.9,15751.6,14998,2746.82,1288.62,3.12757e+07
mjj,3,0,17373.2,25331.2,18800.1,76977,82119.4,59852.3,14863.1,14255.2,2856.18,1001.7,11571.2
mjj,3,0,16175.6,22438.7,21356.8,15539,10404.5,55521.2,12032.7,12946,2906.08,1137.58,6.89013e+07
