mjj 1 8.89318e-323 2.22881e-316
mjj 1 8.89318e-323 3.32073e-316
mjj 1 9.55648e-09 2.45523e-316
mjj 2 3.78277e-07 3.39383e-316
mjj 3 3.69187e-07 2.50844e-316
mjj 1 6.58329e-06 3.24429e-316
mjj 1 0 2.754e-316
mjj 1 146455 6.92687e-310
mjj 1 -nan 6.93102e-310
mjj 1 -nan 6.93138e-310
mjj 1 2.98613e-316 6.94604e-310
mjj 1 140915 6.91898e-310
mjj 1 141330 6.92402e-310
mjj 1 140461 6.9091e-310
mjj 1 inf 6.91483e-310
mjj 1 239919 6.93404e-310
mjj 1 240189 6.95026e-310
mjj 1 240189 6.92534e-310
mjj 1 0.00927527 6.91051e-310
mjj 1 240189 6.91163e-310
mjj 1 240189 6.90452e-310
mjj 1 0.00927527 6.90042e-310
mjj 1 0.500608 6.92623e-310
mjj 2 0.234081 6.93298e-310
mjj 2 0.210784 6.91829e-310
mjj 1 0.149844 6.92526e-310
mjj 2 0.0171146 6.90516e-310
mjj 3 0.0267462 6.90788e-310
mjj 4 0.0304902 6.89841e-310
mjj 5 0.0192554 6.93509e-310
mjj 6 0.0296982 6.92171e-310
mjj 7 0.0246929 6.93115e-310
mjj 1 0.548607 6.93277e-310
mjj 2 0.167737 6.94468e-310
mjj 3 0.133913 6.90953e-310
mjj 4 0.313444 6.94732e-310
mjj 5 0.10596 6.95206e-310
mjj 6 0.420938 6.92584e-310
mjj 7 0.159832 6.93423e-310
mjj 1 1.55593 6.90633e-310
mjj 2 0.194005 6.92138e-310
mjj 3 0.0523689 6.91379e-310
mjj 4 0.228253 6.91749e-310
mjj 5 0.210496 6.93681e-310
mjj 6 1.06157 6.9354e-310
mjj 7 0.755443 6.92585e-310
mjj 1 2.28733 6.90613e-310
mjj 2 0.289166 6.89934e-310
mjj 3 0.172812 6.90234e-310
mjj 4 0.374469 6.94428e-310
mjj 5 0.194665 6.92348e-310
mjj 6 0.222243 6.93858e-310
mjj 7 0.474594 6.93488e-310
mjj 1 0.256541 6.91969e-310
mjj 2 0.0608609 6.92434e-310
mjj 3 0.112795 6.92351e-310
mjj 4 0.130826 6.9054e-310
mjj 5 0.0654635 6.93471e-310
mjj 6 0.190817 6.89934e-310
mjj 7 0.222781 6.92331e-310
mjj 1 10.1026 6.94373e-310
mjj 2 1.76946 6.92542e-310
mjj 3 3.74995 6.94923e-310
mjj 4 6.71583 6.90723e-310
mjj 5 3.55569 6.92756e-310
mjj 6 1.64088 6.92756e-310
mjj 7 1.05196 6.92425e-310
mjj 1 22.735 6.9139e-310
mjj 2 2.25629 6.93774e-310
mjj 3 2.19488 6.90925e-310
mjj 4 6.63856 6.89949e-310
mjj 5 1.76434 6.92756e-310
mjj 6 1.26827 6.89854e-310
mjj 7 2.69328 6.93495e-310
mjj 1 596.768 6.94115e-310
mjj 2 42.0595 6.93786e-310
mjj 3 79.8498 6.93872e-310
mjj 4 65.3801 6.91459e-310
mjj 5 64.5298 6.94049e-310
mjj 6 131.19 6.90605e-310
mjj 7 113.533 6.92949e-310
mjj 20 489.17 6.93579e-310
mjj 0 0 6.95007e-310
mjj 1 498.935 6.9356e-310
mjj 2 47.0416 6.94072e-310
mjj 3 68.3431 6.91057e-310
mjj 4 103.755 6.92831e-310
mjj 5 73.3097 6.93607e-310
mjj 6 114.742 6.9515e-310
mjj 7 92.8589 6.91105e-310
mjj 8 115.384 6.94969e-310
mjj 9 107.241 6.93214e-310
mjj 10 93.7295 6.9507e-310
mjj 11 111.394 6.90014e-310
mjj 12 74.1284 6.93318e-310
mjj 13 161.486 6.91385e-310
mjj 14 98.631 6.90153e-310
mjj 15 311.76 6.94361e-310
mjj 16 270.357 6.91067e-310
mjj 17 79.2616 6.90026e-310
mjj 18 130.566 6.90293e-310
mjj 19 161.199 6.90327e-310
mjj 0 0 6.90016e-310
mjj 0 0 6.90529e-310
mjj 1 242.892 6.93925e-310
mjj 2 46.1351 6.94787e-310
mjj 3 51.5566 6.93924e-310
mjj 4 60.3613 6.90154e-310
mjj 5 65.6193 6.93208e-310
mjj 6 71.184 6.92929e-310
mjj 7 90.1666 6.90981e-310
mjj 8 90.7225 6.94936e-310
mjj 9 116.752 6.91736e-310
mjj 10 107.637 6.94982e-310
mjj 11 120.992 6.9192e-310
mjj 12 129.103 6.92575e-310
mjj 13 133.221 6.91611e-310
mjj 14 146.301 6.93305e-310
mjj 15 135.31 6.91026e-310
mjj 16 177.818 6.9405e-310
mjj 17 113.8 6.91476e-310
mjj 18 162.05 6.90528e-310
mjj 19 160.87 6.89891e-310
mjj 0 0 6.94458e-310
mjj 1 220.105 6.92867e-310
mjj 2 80.5439 6.92782e-310
mjj 3 51.3085 6.89938e-310
mjj 4 62.3995 6.92406e-310
mjj 5 64.471 6.93243e-310
mjj 6 64.9642 6.93728e-310
mjj 7 78.0564 6.925e-310
mjj 8 99.5257 6.9342e-310
mjj 9 98.5519 6.92995e-310
mjj 10 99.3204 6.9515e-310
mjj 11 121.586 6.90622e-310
mjj 12 135.434 6.90672e-310
mjj 13 121.36 6.90364e-310
mjj 14 116.543 6.91927e-310
mjj 15 158.038 6.9009e-310
mjj 16 140.211 6.91525e-310
mjj 17 146.264 6.94902e-310
mjj 18 162.512 6.94742e-310
mjj 19 160.11 6.93493e-310
mjj 0 0 6.9237e-310
mjj 1 234.172 6.95233e-310
mjj 2 59.4486 6.92606e-310
mjj 3 58.9259 6.92012e-310
mjj 4 57.6188 6.9486e-310
mjj 5 64.3361 6.91296e-310
mjj 6 76.1461 6.94661e-310
mjj 7 79.7267 6.91338e-310
mjj 8 90.8084 6.93749e-310
mjj 9 101.914 6.94389e-310
mjj 10 117.482 6.93611e-310
mjj 11 101.126 6.92047e-310
mjj 12 129.075 6.93673e-310
mjj 13 114.187 6.90822e-310
mjj 14 143.262 6.94544e-310
mjj 15 147.515 6.92926e-310
mjj 16 139.091 6.91805e-310
mjj 17 127.101 6.94229e-310
mjj 18 163.223 6.95221e-310
mjj 19 187.838 6.8989e-310
mjj 0 0 6.91138e-310
mjj 3 0.000962119 6.94885e-310
mll 3 0.00115048 6.94385e-310
lep_dr 3 302084 6.94188e-310
lep_dr 3 0 6.9038e-310
jet_dr 3 0 6.93022e-310
jet_dr 3 0 6.90577e-310
jet_dr 3 0.00161733 6.94127e-310
jet_deta 3 0.0692508 6.90415e-310
lep_deta 3 0 6.91748e-310
lep_deta 1 0.967021 6.90818e-310
lep_deta 2 0.707036 6.90284e-310
lep_deta 3 0.910216 6.93186e-310
lep_deta 4 0.999674 6.92693e-310
lep_deta 5 1.15712 6.9042e-310
lep_deta 6 0.934411 6.91517e-310
lep_deta 7 0.999333 6.93566e-310
lep_deta 8 0.988074 6.9189e-310
lep_deta 9 0.940807 6.94934e-310
lep_deta 10 0.989271 6.94754e-310
lep_deta 1 1.35681 6.94269e-310
lep_deta 2 0.992838 6.93571e-310
lep_deta 3 1.77525 6.93154e-310
lep_deta 4 1.34286 6.91273e-310
lep_deta 5 1.31156 6.95097e-310
lep_deta 6 1.15196 6.89852e-310
lep_deta 7 1.21732 6.94644e-310
lep_deta 8 2.03742 6.92586e-310
lep_deta 9 0.771573 6.94288e-310
lep_deta 10 0.991595 6.90854e-310
lep_deta 1 1.00928 6.94445e-310
lep_deta 2 0.810401 6.92926e-310
lep_deta 3 0.919505 6.91911e-310
lep_deta 4 1.03649 6.91738e-310
lep_deta 5 0.973492 6.90555e-310
lep_deta 6 0.93956 6.90123e-310
lep_deta 7 1.02552 6.91664e-310
lep_deta 8 0.905614 6.95143e-310
lep_deta 9 0.951824 6.93198e-310
lep_deta 10 0.943103 6.94901e-310
lep_deta 1 1.08269 6.90769e-310
lep_deta 2 1.04573 6.92786e-310
lep_deta 3 0.812321 6.93638e-310
lep_deta 4 1.04909 6.94016e-310
lep_deta 5 1.48465 6.92414e-310
lep_deta 6 1.21448 6.91944e-310
lep_deta 7 0.894283 6.92688e-310
lep_deta 8 0.877472 6.9095e-310
lep_deta 9 0.616026 6.9164e-310
lep_deta 10 2.26338 6.9058e-310
lep_deta 1 0.00250571 6.92703e-310
lep_deta 2 0.00114229 6.90631e-310
lep_deta 3 0.00130979 6.93354e-310
lep_deta 4 0.00185747 6.92062e-310
lep_deta 5 0.00119881 6.91728e-310
lep_deta 6 0.0012888 6.91845e-310
lep_deta 7 0.00245446 6.90777e-310
lep_deta 8 0.00230374 6.91024e-310
lep_deta 9 0.000406235 6.91268e-310
lep_deta 10 0.00148621 6.90954e-310
lep_deta 1 0.0227803 6.89993e-310
lep_deta 2 0.0135 6.92436e-310
lep_deta 3 0.0244592 6.95188e-310
lep_deta 4 0.0217225 6.90112e-310
lep_deta 5 0.0120741 6.95221e-310
lep_deta 6 0.0141691 6.91973e-310
lep_deta 7 0.0315334 6.94678e-310
lep_deta 8 0.0398725 6.90641e-310
lep_deta 9 0.0406211 6.9352e-310
lep_deta 10 0.00958168 6.93254e-310
lep_dr 1 9.0209e-06 6.94004e-310
lep_dr 2 2.64738e-06 6.90136e-310
lep_dr 3 9.84855e-06 6.92065e-310
lep_dr 4 3.36542e-07 6.93093e-310
lep_dr 5 2.32003e-06 6.92733e-310
lep_dr 6 6.06732e-06 6.94459e-310
lep_dr 7 1.22097e-06 6.91358e-310
lep_dr 8 1.34285e-06 6.9173e-310
lep_dr 9 7.86579e-06 6.94712e-310
lep_dr 10 1.21379e-05 6.93214e-310
lep_dr 1 0.000222945 6.91528e-310
lep_dr 2 2.4637e-05 6.91429e-310
lep_dr 3 0.000122312 6.90997e-310
lep_dr 4 1.44401e-05 6.93283e-310
lep_dr 5 8.17836e-06 6.91703e-310
lep_dr 6 0.000113573 6.94254e-310
lep_dr 7 0.000210583 6.95051e-310
lep_dr 8 0.000103945 6.91014e-310
lep_dr 9 6.01354e-05 6.89909e-310
lep_dr 10 0.00014914 6.93041e-310
lep_dr 1 6.79607e-05 6.90075e-310
lep_dr 1 0.00271624 6.90075e-310
lep_dr 1 1499.43 6.94758e-310
lep_dr 1 1650.66 6.90432e-310
lep_dr 1 1567.25 6.94669e-310
lep_dr 1 1560.67 6.93589e-310
lep_dr 2 10.3256 6.90464e-310
lep_dr 3 6.41431 6.94172e-310
lep_dr 4 6.40262 6.92376e-310
lep_dr 5 6.4331 6.94831e-310
lep_dr 6 6.40713 6.94605e-310
lep_dr 7 6.39581 6.95032e-310
lep_dr 8 6.412 6.9409e-310
lep_dr 9 6.439 6.94664e-310
lep_dr 10 6.41664 6.90623e-310
lep_dr 1 1569.16 6.92985e-310
lep_dr 2 10.1422 6.95211e-310
lep_dr 3 6.3667 6.92123e-310
lep_dr 4 6.45142 6.92387e-310
lep_dr 5 6.51209 6.91787e-310
lep_dr 6 6.35518 6.9508e-310
lep_dr 7 6.31773 6.93932e-310
lep_dr 8 6.45679 6.93754e-310
lep_dr 9 6.50449 6.93814e-310
lep_dr 10 6.42201 6.92252e-310
mll 11 0 6.94636e-310
mll 11 244.437 6.93345e-310
mll 11 193.28 6.94668e-310
mll 11 244.84 6.94668e-310
mll 11 0.00151216 6.91818e-310
mll 11 0.0406161 6.94478e-310
mll 1 0.0665106 6.90289e-310
mll 2 0.00267901 6.90852e-310
mll 3 0.0157701 6.9102e-310
mll 4 0.0390549 6.93215e-310
mll 5 0.0907613 6.89908e-310
mll 6 0.0142826 6.93029e-310
mll 7 0.088528 6.92989e-310
mll 8 0.0746087 6.94937e-310
mll 9 0.0734844 6.93493e-310
mll 10 0.0196967 6.92567e-310
mll 1 1.36013 6.94892e-310
mll 2 0.195067 6.90861e-310
mll 3 0.85693 6.95094e-310
mll 4 0.630087 6.90352e-310
mll 5 0.973543 6.91676e-310
mll 6 1.27381 6.91081e-310
mll 7 0.507985 6.8995e-310
mll 8 1.48726 6.93256e-310
mll 9 0.707028 6.90395e-310
mll 10 1.79639 6.90634e-310
mll 1 0.12574 6.93255e-310
mll 2 0.0266823 6.94332e-310
mll 3 0.0393399 6.90908e-310
mll 4 0.0620547 6.91854e-310
mll 5 0.0306278 6.93633e-310
mll 6 0.0441973 6.93392e-310
mll 7 0.118082 6.93967e-310
mll 8 0.127729 6.90429e-310
mll 9 0.0202364 6.94291e-310
mll 10 0.0366369 6.9431e-310
mll 1 0.56005 6.91022e-310
mll 2 0.136596 6.95081e-310
mll 3 0.590432 6.94064e-310
mll 4 1.27271 6.91833e-310
mll 5 3.38759 6.91018e-310
mll 6 2.13023 6.92749e-310
mll 7 0.669877 6.93461e-310
mll 8 1.42828 6.9175e-310
mll 9 1.97898 6.93161e-310
mll 10 1.40807 6.92406e-310
mll 1 0.0320146 6.90652e-310
mll 2 0.0165834 6.92864e-310
mll 3 0.0168828 6.92045e-310
mll 4 0.0636297 6.9315e-310
mll 5 0.0203828 6.93015e-310
mll 6 0.0409433 6.91199e-310
mll 7 0.042764 6.93955e-310
mll 8 0.0273532 6.94633e-310
mll 9 0.0565499 6.93242e-310
mll 10 0.0369025 6.90116e-310
mll 1 1.4871 6.95105e-310
mll 2 0.517227 6.93746e-310
mll 3 0.251225 6.90732e-310
mll 4 1.38082 6.924e-310
mll 5 0.457932 6.91716e-310
mll 6 1.26329 6.93558e-310
mll 7 1.70118 6.94314e-310
mll 8 1.55946 6.9168e-310
mll 9 1.206 6.92653e-310
mll 10 2.38693 6.93708e-310
mll 1 330.663 6.90027e-310
mll 2 127.028 6.9487e-310
mll 3 206.297 6.92258e-310
mll 4 224.429 6.92116e-310
mll 5 234.382 6.94614e-310
mll 6 246.12 6.92966e-310
mll 7 244.129 6.93285e-310
mll 8 246.907 6.94154e-310
mll 9 251.832 6.90205e-310
mll 10 238.953 6.92863e-310
mll 1 316.112 6.94174e-310
mll 2 136.989 6.94685e-310
mll 3 205.007 6.94298e-310
mll 4 225.727 6.92862e-310
mll 5 292.602 6.93768e-310
jet_dr 5 9.3372 6.94383e-310
jet_dr 1 6.20581 6.92182e-310
jet_dr 2 3.48715 6.94317e-310
jet_dr 3 5.29941 6.90254e-310
jet_dr 4 5.98344 6.93902e-310
jet_dr 5 5.41815 6.9376e-310
jet_dr 6 5.13969 6.93574e-310
jet_dr 7 5.6652 6.93971e-310
jet_dr 8 5.49069 6.90693e-310
jet_dr 9 5.23994 6.90668e-310
jet_dr 10 5.43442 6.94274e-310
jet_dr 1 8.01607 6.91114e-310
jet_dr 2 4.06682 6.92887e-310
jet_dr 3 4.33683 6.90265e-310
jet_dr 4 10.1243 6.9412e-310
jet_dr 5 10.0916 6.91284e-310
jet_dr 6 8.77764 6.91818e-310
jet_dr 7 7.26328 6.90994e-310
jet_dr 8 9.00038 6.94909e-310
jet_dr 9 7.80093 6.92008e-310
jet_dr 10 7.84401 6.92077e-310
jet_deta 10 9.54583 6.94724e-310
jet_deta 1 13.7598 6.9179e-310
jet_deta 2 7.28269 6.919e-310
jet_deta 3 8.49349 6.94401e-310
jet_deta 4 8.42897 6.92e-310
jet_deta 5 8.60953 6.9222e-310
jet_deta 6 8.67534 6.94909e-310
jet_deta 7 9.45948 6.94686e-310
jet_deta 8 8.85533 6.91361e-310
jet_deta 9 8.86971 6.94157e-310
jet_deta 10 8.75733 6.9334e-310
jet_deta 1 17.8353 6.93755e-310
jet_deta 2 5.28332 6.95032e-310
jet_deta 3 10.2763 6.92951e-310
jet_deta 4 9.32597 6.92401e-310
jet_deta 5 3.78595 6.95024e-310
jet_deta 6 10.0542 6.9128e-310
jet_deta 7 10.7743 6.93993e-310
jet_deta 8 11.0248 6.90842e-310
jet_deta 9 9.9676 6.92696e-310
jet_deta 10 20.411 6.9409e-310
